{
  "DB": {
    "DBAddress": "host=/var/run/postgresql sslmode=disable dbname=data",
    "MaxOpenConns": 10
  },
  "SM": {
    "DBAddress": "redis://user:@localhost:6379/0",
    "TockenLength": 32,
    "ExpirationTime": 86400
  },
  "API": {
    "Address": "127.0.0.1:8000",
    "ReadTimeout": "10s",
    "WriteTimeout": "10s",
    "IdleTimeout": "10s"
  }
}